Winter_Project
…
The test also showed significant differences. We cant trust him 100% straight, well check it on pairwise comparisons using Danns test with Holms correction.

library("rstatix")

## 
##  : 'rstatix'

##     'package:stats':
## 
##     filter

df_BDNF %>% 
  dunn_test(BDNF_N~class, p.adjust.method = "holm")

## # A tibble: 28 x 9
##    .y.    group1 group2    n1    n2 statistic        p    p.adj p.adj.signif
##  * <chr>  <chr>  <chr>  <int> <int>     <dbl>    <dbl>    <dbl> <chr>       
##  1 BDNF_N c-CS-m c-CS-s   147   134    0.0803 9.36e- 1 1   e+ 0 ns          
##  2 BDNF_N c-CS-m c-SC-m   147   144   -8.58   9.23e-18 2.58e-16 ****        
##  3 BDNF_N c-CS-m c-SC-s   147   129   -4.38   1.16e- 5 2.32e- 4 ***         
##  4 BDNF_N c-CS-m t-CS-m   147   134   -4.66   3.17e- 6 6.98e- 5 ****        
##  5 BDNF_N c-CS-m t-CS-s   147   102   -6.48   9.21e-11 2.39e- 9 ****        
##  6 BDNF_N c-CS-m t-SC-m   147   135   -3.03   2.47e- 3 3.33e- 2 *           
##  7 BDNF_N c-CS-m t-SC-s   147   132   -2.31   2.10e- 2 2.35e- 1 ns          
##  8 BDNF_N c-CS-s c-SC-m   134   144   -8.46   2.58e-17 6.96e-16 ****        
##  9 BDNF_N c-CS-s c-SC-s   134   129   -4.37   1.26e- 5 2.40e- 4 ***         
## 10 BDNF_N c-CS-s t-CS-m   134   134   -4.63   3.59e- 6 7.54e- 5 ****        
## # ... with 18 more rows
…
